syscalls.c:27:6:initialise_monitor_handles	0	static
syscalls.c:31:5:_getpid	0	static
syscalls.c:36:5:_kill	8	static
syscalls.c:42:6:_exit	8	static
syscalls.c:48:27:_read	16	static
syscalls.c:60:27:_write	16	static
syscalls.c:71:5:_close	0	static
syscalls.c:77:5:_fstat	0	static
syscalls.c:83:5:_isatty	0	static
syscalls.c:88:5:_lseek	0	static
syscalls.c:93:5:_open	0	static
syscalls.c:99:5:_wait	8	static
syscalls.c:105:5:_unlink	8	static
syscalls.c:111:5:_times	0	static
syscalls.c:116:5:_stat	0	static
syscalls.c:122:5:_link	8	static
syscalls.c:128:5:_fork	8	static
syscalls.c:134:5:_execve	8	static
